﻿2021-04-11T14:12:11.7406577+01:00;Thread#1;Info;Reading test run result from Json file "C:\Users\matth\AppData\Local\Temp\29443bb2-5359-4590-b83a-c8e8fecfde48".
2021-04-11T14:12:11.7436586+01:00;Thread#1;Info;Successfully read test run result from Json file "C:\Users\matth\AppData\Local\Temp\29443bb2-5359-4590-b83a-c8e8fecfde48"
2021-04-11T14:12:11.7436586+01:00;Thread#1;Info;Deserializing test run result
2021-04-11T14:12:12.1276500+01:00;Thread#1;Info;Successfully deserialized test run result
2021-04-11T14:12:12.1276500+01:00;Thread#1;Info;Loading test run result
2021-04-11T14:12:12.1462148+01:00;Thread#1;Info;Successfully loaded test run result
2021-04-11T14:12:12.1552168+01:00;Thread#1;Info;creating 1 report(s)
2021-04-11T14:12:12.1552168+01:00;Thread#1;Info;generate Report using template ReportTemplate.cshtml
2021-04-11T14:12:12.9836425+01:00;Thread#1;Info;Finished generating reports.
========== End of log file ==========
